Library/Bee/artifacts/mvdfrm/UnityEngine.TestRunner.ref.dll_F1B32A9E2F71E054.mvfrm
Library/Bee/artifacts/mvdfrm/UnityEditor.Graphs.dll_7EA81F69851E7051.mvfrm
Library/Bee/artifacts/mvdfrm/UnityEditor.CoreModule.dll_FA0549B26C43C51F.mvfrm
Library/Bee/artifacts/mvdfrm/UnityEditor.DeviceSimulatorModule.dll_9FE84A80E215CBD2.mvfrm
Library/Bee/artifacts/mvdfrm/UnityEditor.DiagnosticsModule.dll_003C5403EEBBB9A0.mvfrm
Library/Bee/artifacts/mvdfrm/UnityEditor.EditorToolbarModule.dll_AA52A4BB8597B362.mvfrm
Library/Bee/artifacts/mvdfrm/UnityEditor.GraphViewModule.dll_5CA8AF4203E7E977.mvfrm
Library/Bee/artifacts/mvdfrm/UnityEditor.PresetsUIModule.dll_180EE8240640417C.mvfrm
Library/Bee/artifacts/mvdfrm/UnityEditor.QuickSearchModule.dll_8B4BD5114792B5F9.mvfrm
Library/Bee/artifacts/mvdfrm/UnityEditor.SceneTemplateModule.dll_CDF2157984845D9A.mvfrm
Library/Bee/artifacts/mvdfrm/UnityEditor.SceneViewModule.dll_9B589249F90AB685.mvfrm
Library/Bee/artifacts/mvdfrm/UnityEditor.TextCoreFontEngineModule.dll_A48C2403491927BD.mvfrm
Library/Bee/artifacts/mvdfrm/UnityEditor.TextCoreTextEngineModule.dll_EC745A74D89CE0DB.mvfrm
Library/Bee/artifacts/mvdfrm/UnityEditor.UIBuilderModule.dll_B1315C5E76A062AB.mvfrm
Library/Bee/artifacts/mvdfrm/UnityEditor.UIElementsModule.dll_9A1FFCDE62F6C5FB.mvfrm
Library/Bee/artifacts/mvdfrm/UnityEditor.UIElementsSamplesModule.dll_3F73103155DF7422.mvfrm
Library/Bee/artifacts/mvdfrm/UnityEditor.UnityConnectModule.dll_167128DEC2640355.mvfrm
Library/Bee/artifacts/mvdfrm/UnityEditor.dll_CEAA27646EAB3A46.mvfrm
Library/Bee/artifacts/mvdfrm/UnityEngine.AIModule.dll_AA4E150643BFA593.mvfrm
Library/Bee/artifacts/mvdfrm/UnityEngine.ARModule.dll_63C0DA09A0DD045C.mvfrm
Library/Bee/artifacts/mvdfrm/UnityEngine.AccessibilityModule.dll_0097811084FA8537.mvfrm
Library/Bee/artifacts/mvdfrm/UnityEngine.AndroidJNIModule.dll_1868E5B1AC1634D1.mvfrm
Library/Bee/artifacts/mvdfrm/UnityEngine.AnimationModule.dll_2B2E2B6ADE44BE1D.mvfrm
Library/Bee/artifacts/mvdfrm/UnityEngine.AssetBundleModule.dll_CF350802A9F96AEB.mvfrm
Library/Bee/artifacts/mvdfrm/UnityEngine.AudioModule.dll_FB1DB619F129CFCF.mvfrm
Library/Bee/artifacts/mvdfrm/UnityEngine.ClothModule.dll_62061314CB46AEB3.mvfrm
Library/Bee/artifacts/mvdfrm/UnityEngine.ClusterInputModule.dll_960D9DF473EBD61B.mvfrm
Library/Bee/artifacts/mvdfrm/UnityEngine.ClusterRendererModule.dll_A5950CF251D0D956.mvfrm
Library/Bee/artifacts/mvdfrm/UnityEngine.ContentLoadModule.dll_684B6143787C12D8.mvfrm
Library/Bee/artifacts/mvdfrm/UnityEngine.CoreModule.dll_1D261D051449304A.mvfrm
Library/Bee/artifacts/mvdfrm/UnityEngine.CrashReportingModule.dll_7D5205CAAEABD622.mvfrm
Library/Bee/artifacts/mvdfrm/UnityEngine.DSPGraphModule.dll_1E469A937FDD1208.mvfrm
Library/Bee/artifacts/mvdfrm/UnityEngine.DirectorModule.dll_18F5392A0D7C40E7.mvfrm
Library/Bee/artifacts/mvdfrm/UnityEngine.GIModule.dll_428A5E13DF6E8DAD.mvfrm
Library/Bee/artifacts/mvdfrm/UnityEngine.GameCenterModule.dll_42B62FCC725725C2.mvfrm
Library/Bee/artifacts/mvdfrm/UnityEngine.GridModule.dll_FA9738F32C9DC641.mvfrm
Library/Bee/artifacts/mvdfrm/UnityEngine.HotReloadModule.dll_AC76E970B977D99F.mvfrm
Library/Bee/artifacts/mvdfrm/UnityEngine.IMGUIModule.dll_337D5580B75B63B0.mvfrm
Library/Bee/artifacts/mvdfrm/UnityEngine.ImageConversionModule.dll_11870AA2D3F5914A.mvfrm
Library/Bee/artifacts/mvdfrm/UnityEngine.InputLegacyModule.dll_607A232141EB20DC.mvfrm
Library/Bee/artifacts/mvdfrm/UnityEngine.InputModule.dll_61937DCA6761F473.mvfrm
Library/Bee/artifacts/mvdfrm/UnityEngine.JSONSerializeModule.dll_60AF0A4C8435E5C1.mvfrm
Library/Bee/artifacts/mvdfrm/UnityEngine.LocalizationModule.dll_D45A68470B67C914.mvfrm
Library/Bee/artifacts/mvdfrm/UnityEngine.NVIDIAModule.dll_937327CE5BFBB1F6.mvfrm
Library/Bee/artifacts/mvdfrm/UnityEngine.ParticleSystemModule.dll_D0644F171CBD61B0.mvfrm
Library/Bee/artifacts/mvdfrm/UnityEngine.PerformanceReportingModule.dll_0541CFC6AEEF8F09.mvfrm
Library/Bee/artifacts/mvdfrm/UnityEngine.Physics2DModule.dll_77D41B5B7F41B5B2.mvfrm
Library/Bee/artifacts/mvdfrm/UnityEngine.PhysicsModule.dll_35A9A4FCE60B1A80.mvfrm
Library/Bee/artifacts/mvdfrm/UnityEngine.ProfilerModule.dll_4B3B7260A6D5C7F4.mvfrm
Library/Bee/artifacts/mvdfrm/UnityEngine.PropertiesModule.dll_6FF16F0AE54289FE.mvfrm
Library/Bee/artifacts/mvdfrm/UnityEngine.RuntimeInitializeOnLoadManagerInitializerModule.dll_8475411506058A7B.mvfrm
Library/Bee/artifacts/mvdfrm/UnityEngine.ScreenCaptureModule.dll_7A96B7D198A21223.mvfrm
Library/Bee/artifacts/mvdfrm/UnityEngine.SharedInternalsModule.dll_959849784B238C9A.mvfrm
Library/Bee/artifacts/mvdfrm/UnityEngine.SpriteMaskModule.dll_2BE2A25C93C6BB3C.mvfrm
Library/Bee/artifacts/mvdfrm/UnityEngine.SpriteShapeModule.dll_E896355D5F9BA2F5.mvfrm
Library/Bee/artifacts/mvdfrm/UnityEngine.StreamingModule.dll_DFC318BB2DCC755B.mvfrm
Library/Bee/artifacts/mvdfrm/UnityEngine.SubstanceModule.dll_BC6E2D04791F7369.mvfrm
Library/Bee/artifacts/mvdfrm/UnityEngine.SubsystemsModule.dll_969008BE620EA34F.mvfrm
Library/Bee/artifacts/mvdfrm/UnityEngine.TLSModule.dll_D397D321BCFACB54.mvfrm
Library/Bee/artifacts/mvdfrm/UnityEngine.TerrainModule.dll_4FF0206BBBC9636E.mvfrm
Library/Bee/artifacts/mvdfrm/UnityEngine.TerrainPhysicsModule.dll_D0DEF7EA36005C3D.mvfrm
Library/Bee/artifacts/mvdfrm/UnityEngine.TextCoreFontEngineModule.dll_22EB9F565C16E688.mvfrm
Library/Bee/artifacts/mvdfrm/UnityEngine.TextCoreTextEngineModule.dll_6AD3D5C7EB9A9FA6.mvfrm
Library/Bee/artifacts/mvdfrm/UnityEngine.TextRenderingModule.dll_A3D629DC4FD99218.mvfrm
Library/Bee/artifacts/mvdfrm/UnityEngine.TilemapModule.dll_EEEC87ECD3864477.mvfrm
Library/Bee/artifacts/mvdfrm/UnityEngine.UIElementsModule.dll_9ACE6A26653ADF46.mvfrm
Library/Bee/artifacts/mvdfrm/UnityEngine.UIModule.dll_A5C1B333A006AB3F.mvfrm
Library/Bee/artifacts/mvdfrm/UnityEngine.UmbraModule.dll_75F262327E507B42.mvfrm
Library/Bee/artifacts/mvdfrm/UnityEngine.UnityAnalyticsCommonModule.dll_A0808D0AC8D82D67.mvfrm
Library/Bee/artifacts/mvdfrm/UnityEngine.UnityAnalyticsModule.dll_F003BFE0C8E4B3AC.mvfrm
Library/Bee/artifacts/mvdfrm/UnityEngine.UnityConnectModule.dll_03D0ACEDBCEC0400.mvfrm
Library/Bee/artifacts/mvdfrm/UnityEngine.UnityCurlModule.dll_5E4ACC9C4E58B00A.mvfrm
Library/Bee/artifacts/mvdfrm/UnityEngine.UnityTestProtocolModule.dll_FB35C623AFDAC978.mvfrm
Library/Bee/artifacts/mvdfrm/UnityEngine.UnityWebRequestAssetBundleModule.dll_802C1C79C4A3B77D.mvfrm
Library/Bee/artifacts/mvdfrm/UnityEngine.UnityWebRequestAudioModule.dll_7D3E23A5355A59A1.mvfrm
Library/Bee/artifacts/mvdfrm/UnityEngine.UnityWebRequestModule.dll_2326124CDEEA2BC9.mvfrm
Library/Bee/artifacts/mvdfrm/UnityEngine.UnityWebRequestTextureModule.dll_688065F78BD7DD96.mvfrm
Library/Bee/artifacts/mvdfrm/UnityEngine.UnityWebRequestWWWModule.dll_35961B23DB5A5C12.mvfrm
Library/Bee/artifacts/mvdfrm/UnityEngine.VFXModule.dll_54766B90936834C1.mvfrm
Library/Bee/artifacts/mvdfrm/UnityEngine.VRModule.dll_F893D9B941C130B7.mvfrm
Library/Bee/artifacts/mvdfrm/UnityEngine.VehiclesModule.dll_90B832A987A61082.mvfrm
Library/Bee/artifacts/mvdfrm/UnityEngine.VideoModule.dll_20273A84B3BBEB74.mvfrm
Library/Bee/artifacts/mvdfrm/UnityEngine.VirtualTexturingModule.dll_17549AA71D562268.mvfrm
Library/Bee/artifacts/mvdfrm/UnityEngine.WindModule.dll_9374F82DA57FAEB3.mvfrm
Library/Bee/artifacts/mvdfrm/UnityEngine.XRModule.dll_2B529CBDCAFB7E15.mvfrm
Library/Bee/artifacts/mvdfrm/UnityEngine.dll_014E6E3CCD1EC72B.mvfrm
Library/Bee/artifacts/mvdfrm/UnityEditor.LinuxStandalone.Extensions.dll_420B04FC5C08AA61.mvfrm
Library/Bee/artifacts/mvdfrm/UnityEditor.WebGL.Extensions.dll_142762DF955A3901.mvfrm